^C:\USERS\STEFAN\DESKTOP\BLABLABLA\OPENGL PROJECT\OPENGL PROJECT\MAIN.CPP
/c /Zi /nologo /W3 /WX- /diagnostics:classic /sdl /O2 /Oi /GL /D _UNICODE /D UNICODE /Gm- /EHsc /MD /GS /Gy /fp:precise /permissive- /Zc:wchar_t /Zc:forScope /Zc:inline /Fo"X64\RELEASE\\" /Fd"X64\RELEASE\VC141.PDB" /Gd /TP /FC C:\USERS\STEFAN\DESKTOP\BLABLABLA\OPENGL PROJECT\OPENGL PROJECT\MAIN.CPP
^C:\USERS\STEFAN\DESKTOP\BLABLABLA\OPENGL PROJECT\OPENGL PROJECT\PCH.CPP
/c /Zi /nologo /W3 /WX- /diagnostics:classic /sdl /O2 /Oi /GL /D _UNICODE /D UNICODE /Gm- /EHsc /MD /GS /Gy /fp:precise /permissive- /Zc:wchar_t /Zc:forScope /Zc:inline /Fo"X64\RELEASE\\" /Fd"X64\RELEASE\VC141.PDB" /Gd /TP /FC C:\USERS\STEFAN\DESKTOP\BLABLABLA\OPENGL PROJECT\OPENGL PROJECT\PCH.CPP
