^C:\USERS\STEFAN\DESKTOP\BLABLABLA\OPENGL PROJECT\OPENGL PROJECT\X64\RELEASE\MAIN.OBJ|C:\USERS\STEFAN\DESKTOP\BLABLABLA\OPENGL PROJECT\OPENGL PROJECT\X64\RELEASE\PCH.OBJ
C:\USERS\STEFAN\DESKTOP\BLABLABLA\OPENGL PROJECT\X64\RELEASE\OPENGL PROJECT.EXE
C:\USERS\STEFAN\DESKTOP\BLABLABLA\OPENGL PROJECT\X64\RELEASE\OPENGL PROJECT.PDB
