^D:\GRAFICA-3D-LAST CHANCE\OPENGL PROJECT\OPENGL PROJECT\X64\DEBUG\MAIN.OBJ|D:\GRAFICA-3D-LAST CHANCE\OPENGL PROJECT\OPENGL PROJECT\X64\DEBUG\PCH.OBJ
D:\GRAFICA-3D-LAST CHANCE\OPENGL PROJECT\X64\DEBUG\OPENGL PROJECT.EXE
D:\GRAFICA-3D-LAST CHANCE\OPENGL PROJECT\X64\DEBUG\OPENGL PROJECT.ILK
D:\GRAFICA-3D-LAST CHANCE\OPENGL PROJECT\X64\DEBUG\OPENGL PROJECT.PDB
